Stored as int, binary value from right to left:
1 - log in right
2 - Change password
0 - Check value
8 - Create user
16 - change user rights
32 - delete user
64 - Super user
128 - Admin
256 - Normal
512 - limited
1024 - custom